<?xml version="1.0" encoding="UTF-8"?>
<robot generator="Robot 5.0.1 (Python 3.10.5 on win32)" generated="20230621 15:49:57.096" rpa="false" schemaversion="3">
<suite id="s1" name="robotFramework" source="C:\Users\Formation\Desktop\module2\robotFramework">
<suite id="s1-s1" name="Test" source="C:\Users\Formation\Desktop\module2\robotFramework\test">
<suite id="s1-s1-s1" name="Bot" source="C:\Users\Formation\Desktop\module2\robotFramework\test\bot.robot">
<test id="s1-s1-s1-t1" name="Ouvrir jpetstore" line="16">
<kw name="Ouvrir browser">
<kw name="Open Browser" library="SeleniumLibrary">
<arg>${url}</arg>
<arg>${browser}</arg>
<doc>Opens a new browser instance to the optional ``url``.</doc>
<msg timestamp="20230621 15:49:57.719" level="INFO">Opening browser 'chrome' to base url 'https://petstore.octoperf.com/actions/Catalog.action'.</msg>
<status status="PASS" starttime="20230621 15:49:57.718" endtime="20230621 15:50:00.861"/>
</kw>
<status status="PASS" starttime="20230621 15:49:57.717" endtime="20230621 15:50:00.862"/>
</kw>
<kw name="Page Login">
<kw name="Click Element" library="SeleniumLibrary">
<arg>locator=//a[normalize-space()='Sign In']</arg>
<doc>Click the element identified by ``locator``.</doc>
<msg timestamp="20230621 15:50:00.866" level="INFO">Clicking element '//a[normalize-space()='Sign In']'.</msg>
<status status="PASS" starttime="20230621 15:50:00.865" endtime="20230621 15:50:01.016"/>
</kw>
<kw name="Clear Element Text" library="SeleniumLibrary">
<arg>locator=//input[@name='password']</arg>
<doc>Clears the value of the text-input-element identified by ``locator``.</doc>
<status status="PASS" starttime="20230621 15:50:01.016" endtime="20230621 15:50:01.085"/>
</kw>
<status status="PASS" starttime="20230621 15:50:00.863" endtime="20230621 15:50:01.085"/>
</kw>
<status status="PASS" starttime="20230621 15:49:57.715" endtime="20230621 15:50:01.086"/>
</test>
<status status="PASS" starttime="20230621 15:49:57.153" endtime="20230621 15:50:01.088"/>
</suite>
<status status="PASS" starttime="20230621 15:49:57.149" endtime="20230621 15:50:01.092"/>
</suite>
<status status="PASS" starttime="20230621 15:49:57.104" endtime="20230621 15:50:01.094"/>
</suite>
<statistics>
<total>
<stat pass="1" fail="0" skip="0">All Tests</stat>
</total>
<tag>
</tag>
<suite>
<stat pass="1" fail="0" skip="0" id="s1" name="robotFramework">robotFramework</stat>
<stat pass="1" fail="0" skip="0" id="s1-s1" name="Test">robotFramework.Test</stat>
<stat pass="1" fail="0" skip="0" id="s1-s1-s1" name="Bot">robotFramework.Test.Bot</stat>
</suite>
</statistics>
<errors>
<msg timestamp="20230621 15:49:57.711" level="WARN">Imported resource file 'C:\Users\Formation\Desktop\module2\robotFramework\ressouces\doc.resource' is empty.</msg>
</errors>
</robot>
